How to access data from traitdata
…
passerines %>% select(scientificNameStd, Genus, Species, Family, Wing) %>% 
  arrange(Family) %>% head()
#>          scientificNameStd        Genus      Species          Family Wing
#> 1     Acanthisitta chloris Acanthisitta      chloris Acanthisittidae 58.0
#> 2         Xenicus longipes      Xenicus     longipes Acanthisittidae 59.0
#> 3     Xenicus gilviventris      Xenicus gilviventris Acanthisittidae 52.5
#> 4         Origma solitaria       Origma   solitarius    Acanthizidae 67.0
#> 5 Calamanthus pyrrhopygius     Hylacola  pyrrhopygia    Acanthizidae 53.5
#> 6  Pyrrholaemus sagittatus  Chthonicola   sagittatus    Acanthizidae 59.3

Summarise the number of entries (not number of species) for each family (as some species might have multiple records).

passerines %>% select(scientificNameStd, Family, Genus, Species) %>% group_by(Family) %>% 
summarise(n_family = n())
#> # A tibble: 114 x 2
#>    Family           n_family
#>    <chr>               <int>
#>  1 Acanthisittidae         3
#>  2 Acanthizidae           13
#>  3 Acrocephalidae         12
#>  4 Aegithalidae            7
#>  5 Aegithinidae            3
#>  6 Alaudidae              20
#>  7 Artamidae              12
#>  8 Atrichornithidae        3
#>  9 Bernieridae             1
#> 10 Bombycillidae           8
#> # … with 104 more rows
…
Grouping

This query groups all the taxa by Family, counts the number of Species per Family and removes all Families that have less than 10 species.

Note: With n_distinct we now get the actual number of species, not counting duplicate entries of one species.

by_family <- group_by(passerines, Family)
count <- summarise(by_family, n = n_distinct(scientificNameStd))
count <- filter(count, n > 10)
count
#> # A tibble: 44 x 2
#>    Family             n
#>    <chr>          <int>
#>  1 Acanthizidae      13
#>  2 Acrocephalidae    11
#>  3 Alaudidae         20
#>  4 Campephagidae     14
#>  5 Cardinalidae      21
#>  6 Cisticolidae      30
#>  7 Corvidae          28
#>  8 Cotingidae        11
#>  9 Estrildidae       29
#> 10 Fringillidae      69
#> # … with 34 more rows
…
