PanTHERIA - mammal life-history, geography and ecology traits
…
Next we’ll load the dplyr package:

library(dplyr)

Looking at the data

Data frames look a bit different in dplyr. Above, I called the tbl_df() function on our data. This provides more useful printing of data frames in the console. Ever accidentally printed a massive data frame in the console before? Yeah, this avoids that. You don’t need to change your data to a data frame tbl first — the dplyr functions will automatically convert your data when you call them. This is what the data look like on the console:

tbl_df(pantheria)
#> Warning: `tbl_df()` was deprecated in dplyr 1.0.0.
#> Please use `tibble::as_tibble()` instead.
#> This warning is displayed once every 8 hours.
#> Call `lifecycle::last_lifecycle_warnings()` to see where this warning was generated.
#> # A tibble: 5,426 × 55
#>    Order   Family  Genus  Species ActivityCycle AdultBodyMass_g AdultForearmLen…
#>    <chr>   <chr>   <chr>  <chr>           <dbl>           <dbl>            <dbl>
#>  1 Artiod… Cameli… Camel… dromed…             3         492714.               NA
#>  2 Carniv… Canidae Canis  adustus             1          10392.               NA
#>  3 Carniv… Canidae Canis  aureus              2           9659.               NA
#>  4 Carniv… Canidae Canis  latrans             2          11989.               NA
#>  5 Carniv… Canidae Canis  lupus               2          31757.               NA
#>  6 Artiod… Bovidae Bos    fronta…             2         800143.               NA
#>  7 Artiod… Bovidae Bos    grunni…            NA         500000                NA
#>  8 Artiod… Bovidae Bos    javani…             2         635974.               NA
#>  9 Primat… Pithec… Calli… cupreus             3           1117.               NA
#> 10 Primat… Pithec… Calli… discol…            NA             NA                NA
#> # … with 5,416 more rows, and 48 more variables: AdultHeadBodyLen_mm <dbl>,
#> #   AgeatEyeOpening_d <dbl>, AgeatFirstBirth_d <dbl>,
#> #   BasalMetRate_mLO2hr <dbl>, BasalMetRateMass_g <dbl>, DietBreadth <dbl>,
#> #   DispersalAge_d <dbl>, GestationLen_d <dbl>, HabitatBreadth <dbl>,
#> #   HomeRange_km2 <dbl>, HomeRange_Indiv_km2 <dbl>, InterbirthInterval_d <dbl>,
#> #   LitterSize <dbl>, LittersPerYear <dbl>, MaxLongevity_m <dbl>,
#> #   NeonateBodyMass_g <dbl>, NeonateHeadBodyLen_mm <dbl>, …
…
