Passerine birds
…
First we’ll load the data:

library(traitdata)
data(passerines)

Next we’ll load the dplyr package:

library(dplyr)

Looking at the data

Data frames look a bit different in dplyr. Above, I called the tbl_df() function on our data. This provides more useful printing of data frames in the console. Ever accidentally printed a massive data frame in the console before? Yeah… this avoids that. You don’t need to change your data to a data frame tbl first — the dplyr functions will automatically convert your data when you call them. This is what the data look like on the console:

tbl_df(passerines)
#> # A tibble: 2,374 × 28
#>    Length  Wing  Tail Tarsus   Toe `Bill L` `Bill W` `Bill D`    HN     N    NI
#>     <dbl> <dbl> <dbl>  <dbl> <dbl>    <dbl>    <dbl>    <dbl> <dbl> <dbl> <dbl>
#>  1   69    58    23     21.7 12.6      13.7     4        3        0     0     0
#>  2   90.5  59    21     26.1 24.1      16.0     5.3      4.15     0     0     0
#>  3   93    52.5  20     24.7 18.8      16.1     5.53     3.74     0     0     0
#>  4  124    63.5  39.3   13.4 11.6      16.4    10.6      5.72     0     0     0
#>  5  161.  101    41.7   19.1 14.1      17.4    10.4      5.93     0     0     0
#>  6  215   104.   87     22.0 15.6      25.6    15.8     13.2      0     0     0
#>  7  206.  108.   60.8   22.8 16.2      29.7    18.7     11.2      0     0     0
#>  8  152    81.8  46.8   18.8 12.8      20.3    13.6      8.01     0     0     0
#>  9  259.  128.   88.5   23.4 17.9      29.0    23.8     14.9      0     0     0
#> 10  153    82.3  56.3   12.0  9.03     17.5    11.6      5.57     0     1     0
#> # … with 2,364 more rows, and 17 more variables: HP <dbl>, E <dbl>, EI <dbl>,
#> #   O <dbl>, OI <dbl>, AU <dbl>, AZ <dbl>, AI <dbl>, Sex <fct>, Order <chr>,
#> #   Family <chr>, Subfamily <chr>, Genus <chr>, Species <chr>, TIF No. <dbl>,
#> #   IOC No. <dbl>, scientificNameStd <chr>
…
